…
Instead of splitting this small-ish dataset into training and testing
data, let’s create a set of bootstrap resamples.

``` r
holc_boot <- bootstraps(holc_df)

holc_boot
```

    ## # Bootstrap sampling 
    ## # A tibble: 25 x 2
    ##    splits            id         
    ##    <list>            <chr>      
    ##  1 <split [868/326]> Bootstrap01
    ##  2 <split [868/313]> Bootstrap02
    ##  3 <split [868/315]> Bootstrap03
    ##  4 <split [868/316]> Bootstrap04
    ##  5 <split [868/309]> Bootstrap05
    ##  6 <split [868/336]> Bootstrap06
    ##  7 <split [868/325]> Bootstrap07
    ##  8 <split [868/324]> Bootstrap08
    ##  9 <split [868/340]> Bootstrap09
    ## 10 <split [868/318]> Bootstrap10
    ## # ... with 15 more rows
…
Before using prep() these steps have been defined but not actually run
or implemented. The prep() function is where everything gets evaluated.
You can use juice() to get the preprocessed data back out and check on
your results.

``` r
holc_prep <- prep(holc_rec)
juice(holc_prep)
```

    ## # A tibble: 1,324 x 32
    ##    holc_city holc_id_2 ozone_score pm_2_5_score diesel_pm_score drinking_water_~
    ##    <fct>     <fct>           <dbl>        <dbl>           <dbl>            <dbl>
    ##  1 Fresno    A1             -0.556       0.0137         -0.0649          -0.0500
    ##  2 Fresno    A2             -0.556       0.0137          0.640           -0.0500
    ##  3 Fresno    B1             -0.556       0.0137         -0.392           -0.0500
    ##  4 Fresno    B2             -0.547       0.0261          0.437           -0.0479
    ##  5 Fresno    B3              0.490       0.0137         -0.677            0.0566
    ##  6 Fresno    B4              0.439      -0.0540         -0.291           -0.0613
    ##  7 Fresno    B5              0.490       0.0137          0.663           -0.0500
    ##  8 Fresno    C1             -0.556       0.0137          0.435           -0.0500
    ##  9 Fresno    C2             -0.550       0.0217         -0.0695          -0.0471
    ## 10 Fresno    C3             -0.441       0.0747          0.0487          -0.0398
    ## # ... with 1,314 more rows, and 26 more variables: pesticides_score <dbl>,
    ## #   toxic_releases_score <dbl>, traffic_score <dbl>, cleanup_sites_score <dbl>,
    ## #   groundwater_threats_score <dbl>, hazardous_waste_score <dbl>,
    ## #   impaired_water_bodies_score <dbl>, solid_waste_score <dbl>,
    ## #   asthma_score <dbl>, low_birth_weight_score <dbl>,
    ## #   cardiovascular_disease_score <dbl>, education_score <dbl>,
    ## #   linguistic_isolation_score <dbl>, poverty_score <dbl>,
    ## #   unemployment_score <dbl>, housing_burden_score <dbl>,
    ## #   children_10_percent <dbl>, pop_11_64_years_percent <dbl>,
…
holc_pred
```

    ## # A tibble: 8,009 x 42
    ##    id    .pred_A .pred_B .pred_C .pred_D  .row .pred_class holc_grade correct
    ##    <chr>   <dbl>   <dbl>   <dbl>   <dbl> <int> <fct>       <fct>      <lgl>  
    ##  1 Boot~  0.0110   0.359   0.443  0.187      6 C           B          FALSE  
    ##  2 Boot~  0.0115   0.136   0.590  0.262      7 C           B          FALSE  
    ##  3 Boot~  0.187    0.284   0.155  0.374      8 D           C          FALSE  
    ##  4 Boot~  0.104    0.542   0.253  0.101     10 B           C          FALSE  
    ##  5 Boot~  0.0130   0.150   0.572  0.265     18 C           D          FALSE  
    ##  6 Boot~  0.0350   0.159   0.695  0.111     19 C           D          FALSE  
    ##  7 Boot~  0.0135   0.128   0.457  0.401     22 C           D          FALSE  
    ##  8 Boot~  0.0743   0.289   0.432  0.205     23 C           D          FALSE  
    ##  9 Boot~  0.0218   0.245   0.526  0.208     24 C           D          FALSE  
    ## 10 Boot~  0.241    0.556   0.170  0.0330    25 B           A          FALSE  
    ## # ... with 7,999 more rows, and 33 more variables: holc_city <fct>,
    ## #   holc_id_2 <chr>, ozone_score <dbl>, pm_2_5_score <dbl>,
    ## #   diesel_pm_score <dbl>, drinking_water_score <dbl>, pesticides_score <dbl>,
    ## #   toxic_releases_score <dbl>, traffic_score <dbl>, cleanup_sites_score <dbl>,
    ## #   groundwater_threats_score <dbl>, hazardous_waste_score <dbl>,
    ## #   impaired_water_bodies_score <dbl>, solid_waste_score <dbl>,
    ## #   asthma_score <dbl>, low_birth_weight_score <dbl>,
    ## #   cardiovascular_disease_score <dbl>, education_score <dbl>,
    ## #   linguistic_isolation_score <dbl>, poverty_score <dbl>,
…
